^D:\BENUTZER\PAAL1015\DOCUMENTS\VISUAL STUDIO 2013\PROJECTS\PIGGYBANK\PIGGYBANK\MAIN.CPP|D:\BENUTZER\PAAL1015\DOCUMENTS\VISUAL STUDIO 2013\PROJECTS\PIGGYBANK\PIGGYBANK\PIGGYBANK.CPP
D:\BENUTZER\PAAL1015\DOCUMENTS\VISUAL STUDIO 2013\PROJECTS\PIGGYBANK\PIGGYBANK\DEBUG\VC120.PDB
D:\BENUTZER\PAAL1015\DOCUMENTS\VISUAL STUDIO 2013\PROJECTS\PIGGYBANK\PIGGYBANK\DEBUG\VC120.IDB
D:\BENUTZER\PAAL1015\DOCUMENTS\VISUAL STUDIO 2013\PROJECTS\PIGGYBANK\PIGGYBANK\DEBUG\PIGGYBANK.OBJ
^D:\BENUTZER\PAAL1015\DOCUMENTS\VISUAL STUDIO 2013\PROJECTS\PIGGYBANK\PIGGYBANK\MAIN.CPP
D:\BENUTZER\PAAL1015\DOCUMENTS\VISUAL STUDIO 2013\PROJECTS\PIGGYBANK\PIGGYBANK\DEBUG\VC120.PDB
D:\BENUTZER\PAAL1015\DOCUMENTS\VISUAL STUDIO 2013\PROJECTS\PIGGYBANK\PIGGYBANK\DEBUG\VC120.IDB
D:\BENUTZER\PAAL1015\DOCUMENTS\VISUAL STUDIO 2013\PROJECTS\PIGGYBANK\PIGGYBANK\DEBUG\MAIN.OBJ
^D:\BENUTZER\PAAL1015\DOCUMENTS\VISUAL STUDIO 2013\PROJECTS\PIGGYBANK\PIGGYBANK\PIGGYBANK.CPP
D:\BENUTZER\PAAL1015\DOCUMENTS\VISUAL STUDIO 2013\PROJECTS\PIGGYBANK\PIGGYBANK\DEBUG\VC120.PDB
D:\BENUTZER\PAAL1015\DOCUMENTS\VISUAL STUDIO 2013\PROJECTS\PIGGYBANK\PIGGYBANK\DEBUG\VC120.IDB
D:\BENUTZER\PAAL1015\DOCUMENTS\VISUAL STUDIO 2013\PROJECTS\PIGGYBANK\PIGGYBANK\DEBUG\PIGGYBANK.OBJ
