^D:\BENUTZER\PAAL1015\DOCUMENTS\VISUAL STUDIO 2013\PROJECTS\KONTO\KONTO\CKONTO.CPP|D:\BENUTZER\PAAL1015\DOCUMENTS\VISUAL STUDIO 2013\PROJECTS\KONTO\KONTO\MAIN.CPP
D:\BENUTZER\PAAL1015\DOCUMENTS\VISUAL STUDIO 2013\PROJECTS\KONTO\KONTO\DEBUG\VC120.PDB
D:\BENUTZER\PAAL1015\DOCUMENTS\VISUAL STUDIO 2013\PROJECTS\KONTO\KONTO\DEBUG\VC120.IDB
D:\BENUTZER\PAAL1015\DOCUMENTS\VISUAL STUDIO 2013\PROJECTS\KONTO\KONTO\DEBUG\CKONTO.OBJ
D:\BENUTZER\PAAL1015\DOCUMENTS\VISUAL STUDIO 2013\PROJECTS\KONTO\KONTO\DEBUG\MAIN.OBJ
^D:\BENUTZER\PAAL1015\DOCUMENTS\VISUAL STUDIO 2013\PROJECTS\KONTO\KONTO\CKONTO.CPP
D:\BENUTZER\PAAL1015\DOCUMENTS\VISUAL STUDIO 2013\PROJECTS\KONTO\KONTO\DEBUG\VC120.PDB
D:\BENUTZER\PAAL1015\DOCUMENTS\VISUAL STUDIO 2013\PROJECTS\KONTO\KONTO\DEBUG\VC120.IDB
D:\BENUTZER\PAAL1015\DOCUMENTS\VISUAL STUDIO 2013\PROJECTS\KONTO\KONTO\DEBUG\CKONTO.OBJ
^D:\BENUTZER\PAAL1015\DOCUMENTS\VISUAL STUDIO 2013\PROJECTS\KONTO\KONTO\MAIN.CPP
D:\BENUTZER\PAAL1015\DOCUMENTS\VISUAL STUDIO 2013\PROJECTS\KONTO\KONTO\DEBUG\VC120.PDB
D:\BENUTZER\PAAL1015\DOCUMENTS\VISUAL STUDIO 2013\PROJECTS\KONTO\KONTO\DEBUG\VC120.IDB
D:\BENUTZER\PAAL1015\DOCUMENTS\VISUAL STUDIO 2013\PROJECTS\KONTO\KONTO\DEBUG\MAIN.OBJ
