^F:\DOKUMENTE\STUDIUM\SEMESTER_4\INFORMATIK_2\LABOR\AUFGABE_1\LINKED_LIST_20151019\LINKED_LIST_20151019\LINKED_LIST_20151019\LINKED_LIST.CPP|F:\DOKUMENTE\STUDIUM\SEMESTER_4\INFORMATIK_2\LABOR\AUFGABE_1\LINKED_LIST_20151019\LINKED_LIST_20151019\LINKED_LIST_20151019\LINKED_LIST_MAIN.CPP
F:\DOKUMENTE\STUDIUM\SEMESTER_4\INFORMATIK_2\LABOR\AUFGABE_1\LINKED_LIST_20151019\LINKED_LIST_20151019\LINKED_LIST_20151019\DEBUG\VC120.PDB
F:\DOKUMENTE\STUDIUM\SEMESTER_4\INFORMATIK_2\LABOR\AUFGABE_1\LINKED_LIST_20151019\LINKED_LIST_20151019\LINKED_LIST_20151019\DEBUG\VC120.IDB
F:\DOKUMENTE\STUDIUM\SEMESTER_4\INFORMATIK_2\LABOR\AUFGABE_1\LINKED_LIST_20151019\LINKED_LIST_20151019\LINKED_LIST_20151019\DEBUG\LINKED_LIST.OBJ
F:\DOKUMENTE\STUDIUM\SEMESTER_4\INFORMATIK_2\LABOR\AUFGABE_1\LINKED_LIST_20151019\LINKED_LIST_20151019\LINKED_LIST_20151019\DEBUG\LINKED_LIST_MAIN.OBJ
^F:\DOKUMENTE\STUDIUM\SEMESTER_4\INFORMATIK_2\LABOR\AUFGABE_1\LINKED_LIST_20151019\LINKED_LIST_20151019\LINKED_LIST_20151019\LINKED_LIST.CPP
F:\DOKUMENTE\STUDIUM\SEMESTER_4\INFORMATIK_2\LABOR\AUFGABE_1\LINKED_LIST_20151019\LINKED_LIST_20151019\LINKED_LIST_20151019\DEBUG\VC120.PDB
^F:\DOKUMENTE\STUDIUM\SEMESTER_4\INFORMATIK_2\LABOR\AUFGABE_1\LINKED_LIST_20151019\LINKED_LIST_20151019\LINKED_LIST_20151019\LINKED_LIST_MAIN.CPP
F:\DOKUMENTE\STUDIUM\SEMESTER_4\INFORMATIK_2\LABOR\AUFGABE_1\LINKED_LIST_20151019\LINKED_LIST_20151019\LINKED_LIST_20151019\DEBUG\VC120.PDB
F:\DOKUMENTE\STUDIUM\SEMESTER_4\INFORMATIK_2\LABOR\AUFGABE_1\LINKED_LIST_20151019\LINKED_LIST_20151019\LINKED_LIST_20151019\DEBUG\VC120.IDB
F:\DOKUMENTE\STUDIUM\SEMESTER_4\INFORMATIK_2\LABOR\AUFGABE_1\LINKED_LIST_20151019\LINKED_LIST_20151019\LINKED_LIST_20151019\DEBUG\LINKED_LIST_MAIN.OBJ
